<?xml version="1.0"?>
<svg xmlns="http://www.w3.org/2000/svg" xmlns:xlink="http://www.w3.org/1999/xlink" version="1.1" id="Capa_1" x="0px" y="0px" width="512px" height="512px" viewBox="0 0 612 612" style="enable-background:new 0 0 612 612;" xml:space="preserve"><g><g>
	<g id="_x31_0_34_">
		<g>
			<path d="M604.501,134.782c-9.999-10.05-26.222-10.05-36.221,0L306.014,422.558L43.721,134.782     c-9.999-10.05-26.223-10.05-36.222,0s-9.999,26.35,0,36.399l279.103,306.241c5.331,5.357,12.422,7.652,19.386,7.296     c6.988,0.356,14.055-1.939,19.386-7.296l279.128-306.268C614.5,161.106,614.5,144.832,604.501,134.782z" data-original="#000000" class="active-path" data-old_color="#000000" fill="#707070"/>
		</g>
	</g>
</g></g> </svg>
