<svg xmlns="http://www.w3.org/2000/svg" width="17.105" height="16.168" viewBox="0 0 17.105 16.168">
  <path id="Path_1043" data-name="Path 1043" d="M10.637,3.987l3.48,3.305L5.309,15.658,1.831,12.353Zm6.12-.8L15.205,1.716a1.6,1.6,0,0,0-2.175,0L11.544,3.128l3.48,3.305,1.734-1.647A1.087,1.087,0,0,0,16.757,3.19ZM.01,17a.387.387,0,0,0,.479.447l3.877-.893L.889,13.248Z" transform="translate(-0.001 -1.289)" fill="#1586e5"/>
</svg>
