<?xml version="1.0" encoding="UTF-8"?>
<svg width="13px" height="12px" viewBox="0 0 13 12" version="1.1" xmlns="http://www.w3.org/2000/svg" xmlns:xlink="http://www.w3.org/1999/xlink">
    <!-- Generator: Sketch 61.2 (89653) - https://sketch.com -->
    <title>export</title>
    <desc>Created with Sketch.</desc>
    <g id="Feedback" stroke="none" stroke-width="1" fill="none" fill-rule="evenodd">
        <g id="campaign-01" transform="translate(-1652.000000, -356.000000)" fill="#3B86FF" fill-rule="nonzero">
            <g id="Group-12" transform="translate(415.500000, 354.000000)">
                <g id="Group-10" transform="translate(1236.500000, 0.000000)">
                    <g id="export" transform="translate(0.000000, 2.000000)">
                        <path d="M8.8,6.42485 L8.8,9.60005 L1.6,9.60005 L1.6,2.40005 L4,2.40005 L4,0.80005 L0.8,0.80005 C0.3584,0.80005 0,1.15845 0,1.60005 L0,10.40005 C0,10.84245 0.3584,11.20005 0.8,11.20005 L9.6,11.20005 C10.0424,11.20005 10.4,10.84245 10.4,10.40005 L10.4,6.42485 L8.8,6.42485 Z" id="Path"></path>
                        <path d="M12.64,2.48005 L9.44,0.08005 C9.32,-0.01115 9.1568,-0.02555 9.0216,0.04245 C8.8856,0.11045 8.8,0.24885 8.8,0.40005 L8.8,1.60005 L7.6,1.60005 C5.1736,1.60005 3.2,3.57365 3.2,6.00005 C3.2,6.18565 3.328,6.34725 3.508,6.38965 C3.5384,6.39685 3.5696,6.40005 3.6,6.40005 C3.7488,6.40005 3.8888,6.31685 3.9576,6.17925 L4.052,5.99125 C4.6656,4.76325 5.8992,4.00005 7.272,4.00005 L8.8,4.00005 L8.8,5.20005 C8.8,5.35125 8.8856,5.48965 9.0208,5.55765 C9.156,5.62565 9.3192,5.61125 9.44,5.52005 L12.64,3.12005 C12.7408,3.04485 12.8,2.92565 12.8,2.80005 C12.8,2.67445 12.7408,2.55525 12.64,2.48005 Z" id="Path"></path>
                    </g>
                </g>
            </g>
        </g>
    </g>
</svg>